[api-updater (non-obsolete-error-filter)] 5/21/2021 9:29:15 PM : Starting C:/Program Files/Unity/Hub/Editor/2020.2.2f1/Editor/Data/Tools/ScriptUpdater/APIUpdater.NonObsoleteApiUpdaterDetector.exe
[api-updater (non-obsolete-error-filter)] 
----------------------------------
jit/startup time      : 537.0664ms
moved types parse time: 52ms
candidates parse time : 1ms
C# parse time         : 493ms
candidates check time : 88ms
console write time    : 0ms

